tshirt
tshirt_3
tshirt_3
l_collar 383
l_sleeve_end 772
l_armpit 1341
l_shoulder 323
l_chest 603
l_stomach 511
l_waist 1038
c_chest 956
c_stomach 494
c_waist 1020
r_collar 445
r_sleeve_end 1127
r_armpit 836
r_shoulder 351
r_chest 947
r_stomach 996
r_waist 868