sleevelessshirt
sleevelessshirt_4
sleevelessshirt_4
l_armpit 2165
l_shoulder 2004
l_chest 1978
l_stomach 2925
l_waist 4236
c_chest 1883
c_stomach 3049
c_waist 3751
r_armpit 655
r_shoulder 355
r_chest 326
r_stomach 2518
r_waist 199