sleevelessshirt
sleevelessshirt_3
sleevelessshirt_3
l_armpit 344
l_shoulder 569
l_chest 249
l_stomach 562
l_waist 1171
c_chest 463
c_stomach 834
c_waist 909
r_armpit 176
r_shoulder 396
r_chest 27
r_stomach 821
r_waist 1157